^D:\VISUAL STUDIO PROJEKT\SKOLA\INTROC++\LABORATION\LABORATION 1\LABORATION_1_DEL2\STDAFX.CPP
/c /ZI /nologo /W3 /WX- /diagnostics:classic /sdl /Od /D _DEBUG /D _CONSOLE /D _UNICODE /D UNICODE /Gm- /EHsc /RTC1 /MDd /GS /fp:precise /permissive- /Zc:wchar_t /Zc:forScope /Zc:inline /Yc"stdafx.h" /Fp"X64\DEBUG\LABORATION_1_DEL2.PCH" /Fo"X64\DEBUG\\" /Fd"X64\DEBUG\VC141.PDB" /Gd /TP /FC D:\VISUAL STUDIO PROJEKT\SKOLA\INTROC++\LABORATION\LABORATION 1\LABORATION_1_DEL2\STDAFX.CPP
^D:\VISUAL STUDIO PROJEKT\SKOLA\INTROC++\LABORATION\LABORATION 1\LABORATION_1_DEL2\LABORATION_1_DEL_2.CPP
/c /ZI /nologo /W3 /WX- /diagnostics:classic /sdl /Od /D _DEBUG /D _CONSOLE /D _UNICODE /D UNICODE /Gm- /EHsc /RTC1 /MDd /GS /fp:precise /permissive- /Zc:wchar_t /Zc:forScope /Zc:inline /Yu"stdafx.h" /Fp"X64\DEBUG\LABORATION_1_DEL2.PCH" /Fo"X64\DEBUG\\" /Fd"X64\DEBUG\VC141.PDB" /Gd /TP /FC D:\VISUAL STUDIO PROJEKT\SKOLA\INTROC++\LABORATION\LABORATION 1\LABORATION_1_DEL2\LABORATION_1_DEL_2.CPP
